seg_00030f.csv,1.452063045057165
seg_0012b5.csv,1.2659108165646786
seg_00184e.csv,1.3404042600717307
seg_003339.csv,1.452063045057165
seg_0042cc.csv,1.3404042600717307
seg_004314.csv,1.3404042600717307
seg_004cd2.csv,1.452063045057165
seg_004ee5.csv,1.2659108165646786
seg_004f1f.csv,1.2659108165646786
seg_00648a.csv,1.3404042600717307
seg_006e4a.csv,1.3778484083873233
seg_007a37.csv,1.2659108165646786
seg_00a37e.csv,1.2659108165646786
seg_00be11.csv,1.2659108165646786
seg_00c35b.csv,1.452063045057165
seg_00cc91.csv,1.3404042600717307
seg_00e5f7.csv,1.452063045057165
seg_00f3b9.csv,1.2659108165646786
seg_010eab.csv,1.452063045057165
seg_0125d9.csv,1.2659108165646786
seg_0144cb.csv,1.3778484083873233
seg_0165c6.csv,1.3778484083873233
seg_016913.csv,1.2659108165646786
seg_016cdb.csv,1.2659108165646786
seg_017314.csv,1.452063045057165
seg_01a8dc.csv,1.3404042600717307
seg_01c775.csv,1.452063045057165
seg_01ecb0.csv,1.2659108165646786
seg_02042f.csv,1.2659108165646786
seg_025e78.csv,1.3404042600717307
seg_032822.csv,1.3404042600717307
seg_0339ca.csv,1.2659108165646786
seg_037461.csv,1.2659108165646786
seg_038879.csv,1.452063045057165
seg_03d386.csv,1.2659108165646786
seg_03d63e.csv,1.2659108165646786
seg_03d680.csv,1.452063045057165
seg_03f380.csv,1.2659108165646786
seg_0445d7.csv,1.3404042600717307
seg_046c28.csv,1.3404042600717307
seg_0488a1.csv,1.452063045057165
seg_049957.csv,1.452063045057165
seg_04a696.csv,1.452063045057165
seg_04ae38.csv,1.2659108165646786
seg_04b87a.csv,1.452063045057165
seg_04cceb.csv,1.3404042600717307
seg_04ee93.csv,1.3404042600717307
seg_04fd93.csv,1.452063045057165
seg_0536c9.csv,1.3404042600717307
seg_055127.csv,1.2659108165646786
seg_05a1b0.csv,1.3404042600717307
seg_05a4ad.csv,1.452063045057165
seg_05b66a.csv,1.452063045057165
seg_05bef4.csv,1.2285902259945145
seg_05e0d7.csv,1.2659108165646786
seg_05f126.csv,1.452063045057165
seg_05f9d6.csv,1.3778484083873233
seg_060ce4.csv,1.2659108165646786
seg_061a33.csv,1.452063045057165
seg_0620e6.csv,1.452063045057165
seg_063865.csv,1.3404042600717307
seg_065588.csv,1.2659108165646786
seg_06893f.csv,1.2659108165646786
seg_06b8c9.csv,1.2659108165646786
seg_06bbc5.csv,1.2659108165646786
seg_06d4a2.csv,1.2659108165646786
seg_06d7ba.csv,1.3404042600717307
seg_070bb0.csv,1.2659108165646786
seg_071067.csv,1.2659108165646786
seg_073696.csv,1.452063045057165
seg_075340.csv,1.2659108165646786
seg_075f77.csv,1.2659108165646786
seg_0775a7.csv,1.3404042600717307
seg_077b7e.csv,1.2659108165646786
seg_079e34.csv,1.2659108165646786
seg_07c815.csv,1.3404042600717307
seg_07cd72.csv,1.3404042600717307
seg_07f37c.csv,1.2285902259945145
seg_07f8df.csv,1.2659108165646786
seg_07fc6d.csv,1.452063045057165
seg_086a61.csv,1.452063045057165
seg_0870ab.csv,1.2659108165646786
seg_0879a8.csv,1.452063045057165
seg_08b136.csv,1.3778484083873233
seg_08f441.csv,1.2659108165646786
seg_08fd5b.csv,1.3404042600717307
seg_091c9d.csv,1.452063045057165
seg_093a0a.csv,1.452063045057165
seg_0968f1.csv,1.452063045057165
seg_0981f3.csv,1.2659108165646786
seg_09dd59.csv,1.452063045057165
seg_09ed4e.csv,1.452063045057165
seg_09f0ff.csv,1.3404042600717307
seg_0a0fbb.csv,1.452063045057165
seg_0a1bd0.csv,1.3778484083873233
seg_0a42ba.csv,1.452063045057165
seg_0a45a1.csv,1.2659108165646786
seg_0a97c4.csv,1.452063045057165
seg_0aa0fb.csv,1.452063045057165
seg_0b07c7.csv,1.3404042600717307
seg_0b082e.csv,1.452063045057165
seg_0b32f7.csv,1.2659108165646786
seg_0b3b94.csv,1.3404042600717307
seg_0b48c4.csv,1.2659108165646786
seg_0b4b24.csv,1.2659108165646786
seg_0b54ac.csv,1.2659108165646786
seg_0b76f5.csv,1.452063045057165
seg_0b9ad8.csv,1.3778484083873233
seg_0b9ba3.csv,1.3404042600717307
seg_0ba210.csv,1.452063045057165
seg_0ba585.csv,1.3404042600717307
seg_0bb5fd.csv,1.452063045057165
seg_0bc877.csv,1.2659108165646786
seg_0be6ee.csv,1.2659108165646786
seg_0c12cc.csv,1.3404042600717307
seg_0c1d3a.csv,1.3404042600717307
seg_0c247b.csv,1.452063045057165
seg_0c3943.csv,1.2659108165646786
seg_0c4e31.csv,1.3404042600717307
seg_0c74cf.csv,1.2659108165646786
seg_0c8502.csv,1.452063045057165
seg_0c89ce.csv,1.3778484083873233
seg_0c9aa8.csv,1.452063045057165
seg_0cb81b.csv,1.2659108165646786
seg_0cca14.csv,1.2659108165646786
seg_0cdcc8.csv,1.2659108165646786
seg_0cf651.csv,1.2659108165646786
seg_0d0250.csv,1.2659108165646786
seg_0d04b9.csv,1.452063045057165
seg_0d13a7.csv,1.2659108165646786
seg_0d434c.csv,1.452063045057165
seg_0d540e.csv,1.3404042600717307
seg_0d663a.csv,1.452063045057165
seg_0d6d68.csv,1.3778484083873233
seg_0d762e.csv,1.3778484083873233
seg_0d833c.csv,1.452063045057165
seg_0dae4b.csv,1.2659108165646786
seg_0dc38f.csv,1.3404042600717307
seg_0dcc40.csv,1.452063045057165
seg_0df469.csv,1.2659108165646786
seg_0df75c.csv,1.452063045057165
seg_0dfe8c.csv,1.2659108165646786
seg_0e1370.csv,1.2659108165646786
seg_0e1fbe.csv,1.3778484083873233
seg_0e3739.csv,1.3778484083873233
seg_0e3d44.csv,1.3404042600717307
seg_0e3ed2.csv,1.2659108165646786
seg_0e4833.csv,1.452063045057165
seg_0e7cc5.csv,1.3778484083873233
seg_0e8b79.csv,1.452063045057165
seg_0e9987.csv,1.2659108165646786
seg_0e9bb3.csv,1.3778484083873233
seg_0eb333.csv,1.2659108165646786
seg_0ebfd9.csv,1.2659108165646786
seg_0f565c.csv,1.2659108165646786
seg_0f74a3.csv,1.3778484083873233
seg_0f8961.csv,1.452063045057165
seg_0fc67a.csv,1.452063045057165
seg_0fca83.csv,1.3404042600717307
seg_0fd3ff.csv,1.2659108165646786
seg_1010ad.csv,1.3778484083873233
seg_103b32.csv,1.2659108165646786
seg_105cd9.csv,1.3404042600717307
seg_1084af.csv,1.3778484083873233
seg_10a595.csv,1.3778484083873233
seg_10c09d.csv,1.452063045057165
seg_10f3a6.csv,1.3404042600717307
seg_112b81.csv,1.3404042600717307
seg_1144bc.csv,1.452063045057165
seg_114b79.csv,1.3404042600717307
seg_115617.csv,1.2659108165646786
seg_115a92.csv,1.2659108165646786
seg_11647f.csv,1.3404042600717307
seg_117278.csv,1.2659108165646786
seg_117ff4.csv,1.3778484083873233
seg_11860f.csv,1.3404042600717307
seg_1201e8.csv,1.3404042600717307
seg_121446.csv,1.3778484083873233
seg_121cba.csv,1.2659108165646786
seg_122ba9.csv,1.3404042600717307
seg_123dd4.csv,1.452063045057165
seg_12ac20.csv,1.452063045057165
seg_12b9ba.csv,1.3778484083873233
seg_12ee6e.csv,1.2659108165646786
seg_130e17.csv,1.3404042600717307
seg_13468a.csv,1.452063045057165
seg_136285.csv,1.3404042600717307
seg_136695.csv,1.3778484083873233
seg_137f8a.csv,1.452063045057165
seg_138807.csv,1.3404042600717307
seg_13c2f0.csv,1.452063045057165
seg_13e25f.csv,1.3778484083873233
seg_140bc5.csv,1.3404042600717307
seg_141f34.csv,1.452063045057165
seg_146926.csv,1.452063045057165
seg_148698.csv,1.3404042600717307
seg_14ad27.csv,1.2659108165646786
seg_14c054.csv,1.452063045057165
seg_14c371.csv,1.452063045057165
seg_14c435.csv,1.3404042600717307
seg_14c89d.csv,1.452063045057165
seg_14c8ce.csv,1.3778484083873233
seg_14d1d3.csv,1.3778484083873233
seg_14f5f0.csv,1.452063045057165
seg_151368.csv,1.452063045057165
seg_151d92.csv,1.2659108165646786
seg_153d6a.csv,1.452063045057165
seg_154361.csv,1.3404042600717307
seg_1562cb.csv,1.452063045057165
seg_158691.csv,1.3404042600717307
seg_158764.csv,1.3404042600717307
seg_15adff.csv,1.2659108165646786
seg_15bf25.csv,1.3778484083873233
seg_15c9f9.csv,1.2659108165646786
seg_161aeb.csv,1.452063045057165
seg_161f5f.csv,1.2659108165646786
seg_162fc4.csv,1.452063045057165
seg_16566c.csv,1.452063045057165
seg_166f70.csv,1.452063045057165
seg_168d1c.csv,1.452063045057165
seg_16a270.csv,1.452063045057165
seg_16c3a7.csv,1.2659108165646786
seg_17067e.csv,1.3404042600717307
seg_170684.csv,1.452063045057165
seg_170a0c.csv,1.452063045057165
seg_176542.csv,1.452063045057165
seg_17799c.csv,1.452063045057165
seg_179d90.csv,1.452063045057165
seg_17adc0.csv,1.2659108165646786
seg_17d1ff.csv,1.3404042600717307
seg_17e596.csv,1.452063045057165
seg_180481.csv,1.452063045057165
seg_18096a.csv,1.3778484083873233
seg_1815fe.csv,1.3778484083873233
seg_1827c5.csv,1.452063045057165
seg_184222.csv,1.2659108165646786
seg_185ad6.csv,1.452063045057165
seg_18d1d0.csv,1.3404042600717307
seg_18d307.csv,1.3404042600717307
seg_18f633.csv,1.2659108165646786
seg_18f853.csv,1.3404042600717307
seg_18fb65.csv,1.3404042600717307
seg_193404.csv,1.452063045057165
seg_19515c.csv,1.2659108165646786
seg_195eda.csv,1.3404042600717307
seg_1969c8.csv,1.452063045057165
seg_19b08e.csv,1.2659108165646786
seg_19b9dd.csv,1.3404042600717307
seg_19e1ff.csv,1.3404042600717307
seg_19ec5c.csv,1.452063045057165
seg_1a0e94.csv,1.452063045057165
seg_1a0eca.csv,1.3404042600717307
seg_1a671a.csv,1.3404042600717307
seg_1a791c.csv,1.2285902259945145
seg_1a8e06.csv,1.3404042600717307
seg_1a8f0d.csv,1.2659108165646786
seg_1a8f2c.csv,1.452063045057165
seg_1abcaf.csv,1.3404042600717307
seg_1ac9e2.csv,1.2659108165646786
seg_1ae362.csv,1.3404042600717307
seg_1afa29.csv,1.2659108165646786
seg_1b08a4.csv,1.2659108165646786
seg_1b1ad8.csv,1.2659108165646786
seg_1b2298.csv,1.452063045057165
seg_1b78af.csv,1.3404042600717307
seg_1baf33.csv,1.2659108165646786
seg_1bd38e.csv,1.3404042600717307
seg_1bf7b3.csv,1.3404042600717307
seg_1c401b.csv,1.452063045057165
seg_1c4c5b.csv,1.3404042600717307
seg_1c4e72.csv,1.452063045057165
seg_1c849d.csv,1.2659108165646786
seg_1c904f.csv,1.2659108165646786
seg_1c929e.csv,1.3404042600717307
seg_1cb942.csv,1.452063045057165
seg_1cd352.csv,1.3404042600717307
seg_1cf1b5.csv,1.3404042600717307
seg_1d044c.csv,1.452063045057165
seg_1d11e5.csv,1.2659108165646786
seg_1d596d.csv,1.3404042600717307
seg_1d980f.csv,1.2659108165646786
seg_1da819.csv,1.2659108165646786
seg_1db443.csv,1.452063045057165
seg_1db8e8.csv,1.452063045057165
seg_1dec9c.csv,1.452063045057165
seg_1e0523.csv,1.2285902259945145
seg_1e0b82.csv,1.452063045057165
seg_1e572b.csv,1.452063045057165
seg_1e617a.csv,1.2285902259945145
seg_1e61d6.csv,1.2659108165646786
seg_1e677e.csv,1.2659108165646786
seg_1eae76.csv,1.3404042600717307
seg_1ebe6b.csv,1.3404042600717307
seg_1ece48.csv,1.3404042600717307
seg_1eeb8f.csv,1.2659108165646786
seg_1ef708.csv,1.2659108165646786
seg_1f1e60.csv,1.452063045057165
seg_1f3d44.csv,1.3404042600717307
seg_1f3ede.csv,1.2285902259945145
seg_1f5240.csv,1.2659108165646786
seg_1f7cf8.csv,1.2659108165646786
seg_1f9aed.csv,1.2659108165646786
seg_1fa983.csv,1.3404042600717307
seg_1fc7ab.csv,1.3404042600717307
seg_1fe311.csv,1.452063045057165
seg_2005a7.csv,1.3778484083873233
seg_2018c8.csv,1.452063045057165
seg_204dc6.csv,1.2659108165646786
seg_208ba5.csv,1.3404042600717307
seg_2099f4.csv,1.2659108165646786
seg_20a990.csv,1.2659108165646786
seg_20b8d0.csv,1.3404042600717307
seg_20cbac.csv,1.3778484083873233
seg_20cc25.csv,1.2659108165646786
seg_20d9de.csv,1.452063045057165
seg_20e9ad.csv,1.2285902259945145
seg_210388.csv,1.452063045057165
seg_211299.csv,1.452063045057165
seg_211486.csv,1.452063045057165
seg_214492.csv,1.2659108165646786
seg_217eed.csv,1.3404042600717307
seg_218049.csv,1.2659108165646786
seg_21eebb.csv,1.2659108165646786
seg_21faa9.csv,1.452063045057165
seg_222c5f.csv,1.2659108165646786
seg_225320.csv,1.452063045057165
seg_226e60.csv,1.452063045057165
seg_229eda.csv,1.452063045057165
seg_22e509.csv,1.2659108165646786
seg_2313d1.csv,1.2659108165646786
seg_232559.csv,1.452063045057165
seg_23323e.csv,1.3404042600717307
seg_2367fb.csv,1.452063045057165
seg_238242.csv,1.452063045057165
seg_2383c2.csv,1.3404042600717307
seg_2396a2.csv,1.2285902259945145
seg_23b123.csv,1.452063045057165
seg_23bdf9.csv,1.3778484083873233
seg_23c947.csv,1.2659108165646786
seg_23efb0.csv,1.3404042600717307
seg_23f823.csv,1.2659108165646786
seg_23fe27.csv,1.452063045057165
seg_241266.csv,1.2285902259945145
seg_24157a.csv,1.452063045057165
seg_24458d.csv,1.452063045057165
seg_2465ce.csv,1.3778484083873233
seg_247262.csv,1.452063045057165
seg_24ba8d.csv,1.3404042600717307
seg_24c078.csv,1.452063045057165
seg_24c1c9.csv,1.2659108165646786
seg_24e071.csv,1.2659108165646786
seg_24f338.csv,1.2659108165646786
seg_257b8a.csv,1.2659108165646786
seg_2597af.csv,1.3404042600717307
seg_259c63.csv,1.2285902259945145
seg_259d65.csv,1.2659108165646786
seg_259dd3.csv,1.3778484083873233
seg_25aa9f.csv,1.452063045057165
seg_25ab3f.csv,1.2659108165646786
seg_25b38a.csv,1.452063045057165
seg_25c8dc.csv,1.452063045057165
seg_25cca7.csv,1.452063045057165
seg_25e76d.csv,1.3404042600717307
seg_26049e.csv,1.452063045057165
seg_263deb.csv,1.2659108165646786
seg_263fb3.csv,1.2659108165646786
seg_2642d0.csv,1.2659108165646786
seg_2642d4.csv,1.452063045057165
seg_264c7d.csv,1.452063045057165
seg_266805.csv,1.2659108165646786
seg_266c6e.csv,1.3404042600717307
seg_266d4e.csv,1.3404042600717307
seg_268249.csv,1.2659108165646786
seg_268625.csv,1.2659108165646786
seg_268956.csv,1.2659108165646786
seg_26a2a0.csv,1.3404042600717307
seg_26cba3.csv,1.3404042600717307
seg_26edaa.csv,1.452063045057165
seg_2700bd.csv,1.2659108165646786
seg_272a47.csv,1.2659108165646786
seg_274a1a.csv,1.3778484083873233
seg_2774c4.csv,1.452063045057165
seg_279725.csv,1.452063045057165
seg_27a282.csv,1.2659108165646786
seg_27b7c8.csv,1.3404042600717307
seg_27db4d.csv,1.452063045057165
seg_27de37.csv,1.452063045057165
seg_27f532.csv,1.452063045057165
seg_27ff17.csv,1.3404042600717307
seg_280863.csv,1.3778484083873233
seg_280e3b.csv,1.452063045057165
seg_284223.csv,1.2659108165646786
seg_284923.csv,1.452063045057165
seg_287e60.csv,1.2659108165646786
seg_287fef.csv,1.2659108165646786
seg_288001.csv,1.3404042600717307
seg_2883ec.csv,1.3778484083873233
seg_289d99.csv,1.3404042600717307
seg_28fc32.csv,1.3778484083873233
seg_29022f.csv,1.2659108165646786
seg_2916e3.csv,1.452063045057165
seg_293dbf.csv,1.2659108165646786
seg_293dc2.csv,1.2659108165646786
seg_29475f.csv,1.2659108165646786
seg_295b1c.csv,1.452063045057165
seg_2977cd.csv,1.3778484083873233
seg_29a073.csv,1.3778484083873233
seg_29acb7.csv,1.2659108165646786
seg_29c772.csv,1.3778484083873233
seg_29c906.csv,1.3404042600717307
seg_29d497.csv,1.3404042600717307
seg_29d4c6.csv,1.452063045057165
seg_29e799.csv,1.3778484083873233
seg_2a0ace.csv,1.452063045057165
seg_2a0afc.csv,1.2659108165646786
seg_2a0dc0.csv,1.452063045057165
seg_2a2f1e.csv,1.3778484083873233
seg_2a4551.csv,1.452063045057165
seg_2a6343.csv,1.452063045057165
seg_2a8351.csv,1.2659108165646786
seg_2aa101.csv,1.3404042600717307
seg_2abd33.csv,1.2659108165646786
seg_2b2cb3.csv,1.3404042600717307
seg_2b372b.csv,1.2659108165646786
seg_2b4959.csv,1.3778484083873233
seg_2b6d52.csv,1.452063045057165
seg_2ba79a.csv,1.2659108165646786
seg_2bcbde.csv,1.452063045057165
seg_2be983.csv,1.452063045057165
seg_2bf5be.csv,1.452063045057165
seg_2bf9dd.csv,1.452063045057165
seg_2c3203.csv,1.3404042600717307
seg_2c5e9f.csv,1.452063045057165
seg_2c6011.csv,1.3778484083873233
seg_2c69e4.csv,1.452063045057165
seg_2c762c.csv,1.3778484083873233
seg_2cac57.csv,1.452063045057165
seg_2cadc0.csv,1.452063045057165
seg_2cdbe3.csv,1.3404042600717307
seg_2d3828.csv,1.2659108165646786
seg_2d402d.csv,1.2659108165646786
seg_2d427f.csv,1.3404042600717307
seg_2d5544.csv,1.2659108165646786
seg_2d7cc4.csv,1.3404042600717307
seg_2d92f0.csv,1.452063045057165
seg_2db7dc.csv,1.2659108165646786
seg_2dc6ff.csv,1.2659108165646786
seg_2dccec.csv,1.2659108165646786
seg_2dcd3a.csv,1.2659108165646786
seg_2dcd84.csv,1.452063045057165
seg_2dfb91.csv,1.2659108165646786
seg_2e2372.csv,1.452063045057165
seg_2e50fb.csv,1.3404042600717307
seg_2e64af.csv,1.2659108165646786
seg_2e71dd.csv,1.3404042600717307
seg_2e88dd.csv,1.2659108165646786
seg_2e917f.csv,1.452063045057165
seg_2e9a47.csv,1.452063045057165
seg_2ea616.csv,1.2659108165646786
seg_2eccb9.csv,1.2659108165646786
seg_2ece02.csv,1.2659108165646786
seg_2ed79b.csv,1.3404042600717307
seg_2eddf6.csv,1.452063045057165
seg_2ee95c.csv,1.452063045057165
seg_2efd5c.csv,1.452063045057165
seg_2f1664.csv,1.452063045057165
seg_2f4f14.csv,1.2659108165646786
seg_2f5695.csv,1.3404042600717307
seg_2f60db.csv,1.452063045057165
seg_2f86cd.csv,1.3404042600717307
seg_2f8e19.csv,1.452063045057165
seg_2f8f6d.csv,1.452063045057165
seg_2f9336.csv,1.2659108165646786
seg_2f9581.csv,1.2659108165646786
seg_2fb672.csv,1.452063045057165
seg_2fe382.csv,1.2659108165646786
seg_301c1e.csv,1.3404042600717307
seg_30207d.csv,1.452063045057165
seg_304581.csv,1.3778484083873233
seg_304b87.csv,1.2659108165646786
seg_304df5.csv,1.452063045057165
seg_30501b.csv,1.452063045057165
seg_3065ba.csv,1.2659108165646786
seg_30661b.csv,1.3404042600717307
seg_306756.csv,1.452063045057165
seg_30ad2a.csv,1.3404042600717307
seg_30b043.csv,1.2659108165646786
seg_30da11.csv,1.2659108165646786
seg_30fd84.csv,1.452063045057165
seg_310230.csv,1.2659108165646786
seg_31064b.csv,1.2659108165646786
seg_311499.csv,1.2659108165646786
seg_311b5e.csv,1.2659108165646786
seg_3128e6.csv,1.452063045057165
seg_3151ff.csv,1.3778484083873233
seg_31631c.csv,1.3778484083873233
seg_316f86.csv,1.2659108165646786
seg_318135.csv,1.2659108165646786
seg_31a51f.csv,1.3404042600717307
seg_31a6cd.csv,1.2659108165646786
seg_31b808.csv,1.2659108165646786
seg_31c0f4.csv,1.452063045057165
seg_31d763.csv,1.3404042600717307
seg_31d7bf.csv,1.2659108165646786
seg_31d810.csv,1.452063045057165
seg_31ddc5.csv,1.452063045057165
seg_3234ca.csv,1.2659108165646786
seg_324447.csv,1.452063045057165
seg_324537.csv,1.2659108165646786
seg_325790.csv,1.2659108165646786
seg_326eb7.csv,1.2659108165646786
seg_327ed4.csv,1.2659108165646786
seg_32906d.csv,1.3404042600717307
seg_32ad0f.csv,1.452063045057165
seg_32c904.csv,1.452063045057165
seg_32d747.csv,1.2659108165646786
seg_32e763.csv,1.2659108165646786
seg_32f3a9.csv,1.3404042600717307
seg_32f6df.csv,1.2659108165646786
seg_32f72d.csv,1.2659108165646786
seg_32fc4e.csv,1.452063045057165
seg_330579.csv,1.2659108165646786
seg_3319b5.csv,1.452063045057165
seg_331f2b.csv,1.452063045057165
seg_3340b9.csv,1.3404042600717307
seg_335170.csv,1.2659108165646786
seg_337b8c.csv,1.3404042600717307
seg_339f80.csv,1.2659108165646786
seg_33c30d.csv,1.2659108165646786
seg_342ce6.csv,1.452063045057165
seg_343571.csv,1.3778484083873233
seg_3452b2.csv,1.3404042600717307
seg_34a2b8.csv,1.2659108165646786
seg_34a8f7.csv,1.452063045057165
seg_34abd2.csv,1.3404042600717307
seg_34ef79.csv,1.3778484083873233
seg_3506d6.csv,1.2659108165646786
seg_35269b.csv,1.452063045057165
seg_355717.csv,1.3404042600717307
seg_355d19.csv,1.452063045057165
seg_35a2d7.csv,1.452063045057165
seg_35b009.csv,1.2659108165646786
seg_35b753.csv,1.452063045057165
seg_35ba8f.csv,1.452063045057165
seg_35c587.csv,1.3778484083873233
seg_35dd45.csv,1.452063045057165
seg_35ee83.csv,1.3404042600717307
seg_36147d.csv,1.3404042600717307
seg_361f5a.csv,1.452063045057165
seg_3631ec.csv,1.2659108165646786
seg_3661de.csv,1.452063045057165
seg_369570.csv,1.3778484083873233
seg_36b77f.csv,1.452063045057165
seg_36e32d.csv,1.452063045057165
seg_3706be.csv,1.452063045057165
seg_373a04.csv,1.3778484083873233
seg_373ba6.csv,1.3404042600717307
seg_37608b.csv,1.3404042600717307
seg_3761d0.csv,1.3404042600717307
seg_37669c.csv,1.452063045057165
seg_376908.csv,1.3404042600717307
seg_377134.csv,1.2659108165646786
seg_3788c5.csv,1.452063045057165
seg_37bf85.csv,1.2659108165646786
seg_37f3fb.csv,1.3404042600717307
seg_38001b.csv,1.3404042600717307
seg_383b6b.csv,1.3404042600717307
seg_383f2e.csv,1.452063045057165
seg_3865bc.csv,1.2659108165646786
seg_3878d0.csv,1.2285902259945145
seg_389906.csv,1.452063045057165
seg_38ad16.csv,1.452063045057165
seg_38ee24.csv,1.3404042600717307
seg_392019.csv,1.2659108165646786
seg_39300d.csv,1.3404042600717307
seg_395e0e.csv,1.452063045057165
seg_397983.csv,1.452063045057165
seg_397dc9.csv,1.452063045057165
seg_398a25.csv,1.3404042600717307
seg_39a886.csv,1.452063045057165
seg_39ad50.csv,1.3404042600717307
seg_3a1600.csv,1.2659108165646786
seg_3a22ac.csv,1.2659108165646786
seg_3a80c5.csv,1.3404042600717307
seg_3a8a76.csv,1.3404042600717307
seg_3aca44.csv,1.2659108165646786
seg_3adb1a.csv,1.2659108165646786
seg_3ae4d9.csv,1.2659108165646786
seg_3af649.csv,1.3404042600717307
seg_3b2013.csv,1.3404042600717307
seg_3b30fd.csv,1.452063045057165
seg_3b4414.csv,1.2659108165646786
seg_3b7175.csv,1.2659108165646786
seg_3b7724.csv,1.452063045057165
seg_3b95d2.csv,1.452063045057165
seg_3b95dc.csv,1.2659108165646786
seg_3ba485.csv,1.452063045057165
seg_3bb90a.csv,1.3404042600717307
seg_3bc9ed.csv,1.2659108165646786
seg_3bd97e.csv,1.452063045057165
seg_3bf9ac.csv,1.3404042600717307
seg_3bfcf6.csv,1.2659108165646786
seg_3c3ddf.csv,1.3404042600717307
seg_3c4106.csv,1.3404042600717307
seg_3c64fb.csv,1.3778484083873233
seg_3c8545.csv,1.3778484083873233
seg_3cba49.csv,1.452063045057165
seg_3cbccf.csv,1.2659108165646786
seg_3ce740.csv,1.452063045057165
seg_3cfb73.csv,1.452063045057165
seg_3d059a.csv,1.3404042600717307
seg_3d06cc.csv,1.452063045057165
seg_3d19fc.csv,1.3404042600717307
seg_3d1cb3.csv,1.3404042600717307
seg_3d1f2e.csv,1.2659108165646786
seg_3d581c.csv,1.3404042600717307
seg_3d6aac.csv,1.3778484083873233
seg_3d6e79.csv,1.3778484083873233
seg_3d9aa0.csv,1.3404042600717307
seg_3db0a8.csv,1.2659108165646786
seg_3e00cd.csv,1.452063045057165
seg_3e55d5.csv,1.2659108165646786
seg_3e87b4.csv,1.3404042600717307
seg_3ec967.csv,1.2659108165646786
seg_3edf51.csv,1.2659108165646786
seg_3f2086.csv,1.452063045057165
seg_3f3689.csv,1.3404042600717307
seg_3f3983.csv,1.452063045057165
seg_3f5be6.csv,1.2659108165646786
seg_3f80ef.csv,1.2659108165646786
seg_3f99c8.csv,1.2659108165646786
seg_3fb24b.csv,1.2659108165646786
seg_3fc7ca.csv,1.452063045057165
seg_3fdae0.csv,1.452063045057165
seg_407b2b.csv,1.452063045057165
seg_40b3aa.csv,1.3404042600717307
seg_40f810.csv,1.452063045057165
seg_411225.csv,1.2659108165646786
seg_414d0f.csv,1.3778484083873233
seg_4185b3.csv,1.2659108165646786
seg_419531.csv,1.452063045057165
seg_419b2a.csv,1.452063045057165
seg_41a267.csv,1.3404042600717307
seg_41aadc.csv,1.452063045057165
seg_41ab7e.csv,1.452063045057165
seg_41be18.csv,1.452063045057165
seg_41be7d.csv,1.2659108165646786
seg_41f45e.csv,1.2659108165646786
seg_420bcc.csv,1.2659108165646786
seg_420d4e.csv,1.452063045057165
seg_421a96.csv,1.3404042600717307
seg_421da1.csv,1.452063045057165
seg_423ebe.csv,1.2659108165646786
seg_425462.csv,1.2659108165646786
seg_42648c.csv,1.2659108165646786
seg_4280d9.csv,1.452063045057165
seg_428d66.csv,1.2659108165646786
seg_42c4c9.csv,1.452063045057165
seg_42e7e8.csv,1.3404042600717307
seg_42ff14.csv,1.3778484083873233
seg_430e66.csv,1.3404042600717307
seg_43383f.csv,1.3404042600717307
seg_434c96.csv,1.3404042600717307
seg_43597f.csv,1.2659108165646786
seg_43c6f4.csv,1.452063045057165
seg_440106.csv,1.452063045057165
seg_4401d8.csv,1.452063045057165
seg_441c6d.csv,1.452063045057165
seg_4435bd.csv,1.3404042600717307
seg_447972.csv,1.3778484083873233
seg_447b8b.csv,1.452063045057165
seg_447cb3.csv,1.452063045057165
seg_44d3ca.csv,1.2659108165646786
seg_455b16.csv,1.2659108165646786
seg_456149.csv,1.452063045057165
seg_457234.csv,1.452063045057165
seg_45838b.csv,1.452063045057165
seg_4587bb.csv,1.452063045057165
seg_45a8a9.csv,1.2285902259945145
seg_45b051.csv,1.2659108165646786
seg_45e062.csv,1.452063045057165
seg_45e4ed.csv,1.2659108165646786
seg_45e7ad.csv,1.2659108165646786
seg_46012e.csv,1.452063045057165
seg_460436.csv,1.452063045057165
seg_461ab5.csv,1.3404042600717307
seg_461b63.csv,1.2659108165646786
seg_462c1d.csv,1.452063045057165
seg_464839.csv,1.452063045057165
seg_468bc9.csv,1.452063045057165
seg_468fdb.csv,1.3404042600717307
seg_46a42b.csv,1.2659108165646786
seg_46b84d.csv,1.452063045057165
seg_46c6d3.csv,1.452063045057165
seg_46dd7c.csv,1.2659108165646786
seg_4729a7.csv,1.3404042600717307
seg_4743ab.csv,1.452063045057165
seg_4743fa.csv,1.452063045057165
seg_476700.csv,1.2659108165646786
seg_476bdb.csv,1.2659108165646786
seg_477c83.csv,1.3404042600717307
seg_478327.csv,1.452063045057165
seg_47a48f.csv,1.452063045057165
seg_47d374.csv,1.2659108165646786
seg_47fed6.csv,1.3778484083873233
seg_482745.csv,1.3404042600717307
seg_4848e3.csv,1.452063045057165
seg_484901.csv,1.3404042600717307
seg_486973.csv,1.3404042600717307
seg_48a4b3.csv,1.3404042600717307
seg_48a80c.csv,1.3404042600717307
seg_48b545.csv,1.452063045057165
seg_48feba.csv,1.2659108165646786
seg_490092.csv,1.452063045057165
seg_490d6e.csv,1.3778484083873233
seg_492dc6.csv,1.3778484083873233
seg_49322d.csv,1.452063045057165
seg_49336f.csv,1.2659108165646786
seg_495573.csv,1.452063045057165
seg_496d07.csv,1.2659108165646786
seg_496dad.csv,1.2659108165646786
seg_49b0cb.csv,1.452063045057165
seg_49d84b.csv,1.452063045057165
seg_49fdf0.csv,1.452063045057165
seg_4a2525.csv,1.452063045057165
seg_4a6096.csv,1.2659108165646786
seg_4a719c.csv,1.2659108165646786
seg_4a91a9.csv,1.3404042600717307
seg_4a9e6b.csv,1.452063045057165
seg_4a9e8d.csv,1.452063045057165
seg_4ab7bf.csv,1.452063045057165
seg_4abc29.csv,1.2659108165646786
seg_4acc4b.csv,1.2659108165646786
seg_4ad5a2.csv,1.452063045057165
seg_4ad674.csv,1.2285902259945145
seg_4adeda.csv,1.3404042600717307
seg_4ae37c.csv,1.452063045057165
seg_4ae712.csv,1.452063045057165
seg_4b0839.csv,1.3404042600717307
seg_4b4c91.csv,1.452063045057165
seg_4b4ffb.csv,1.3404042600717307
seg_4b8044.csv,1.3778484083873233
seg_4b953a.csv,1.2659108165646786
seg_4ba3d1.csv,1.452063045057165
seg_4c067a.csv,1.3778484083873233
seg_4c12b2.csv,1.3404042600717307
seg_4c18e2.csv,1.3404042600717307
seg_4c3a2b.csv,1.3778484083873233
seg_4c4995.csv,1.3404042600717307
seg_4c65e6.csv,1.452063045057165
seg_4c8db6.csv,1.452063045057165
seg_4ca6de.csv,1.452063045057165
seg_4cb0d7.csv,1.3404042600717307
seg_4cb9c6.csv,1.2659108165646786
seg_4ce234.csv,1.452063045057165
seg_4d0008.csv,1.2659108165646786
seg_4d0041.csv,1.452063045057165
seg_4d0c45.csv,1.452063045057165
seg_4d18f4.csv,1.3404042600717307
seg_4d2671.csv,1.3404042600717307
seg_4d53c2.csv,1.452063045057165
seg_4d5a4a.csv,1.2659108165646786
seg_4d7c56.csv,1.2659108165646786
seg_4d8f0f.csv,1.3404042600717307
seg_4db886.csv,1.452063045057165
seg_4db997.csv,1.2659108165646786
seg_4dbbd1.csv,1.3778484083873233
seg_4ddddc.csv,1.3778484083873233
seg_4dfa03.csv,1.2659108165646786
seg_4e0c4a.csv,1.452063045057165
seg_4e2c66.csv,1.3404042600717307
seg_4e3bd7.csv,1.3404042600717307
seg_4e627b.csv,1.3404042600717307
seg_4e9646.csv,1.452063045057165
seg_4ea3fa.csv,1.3404042600717307
seg_4ea81c.csv,1.2285902259945145
seg_4eb127.csv,1.3404042600717307
seg_4eeaef.csv,1.3404042600717307
seg_4eef28.csv,1.452063045057165
seg_4f48b4.csv,1.3404042600717307
seg_4f5931.csv,1.452063045057165
seg_4f76a2.csv,1.2659108165646786
seg_4f83a3.csv,1.452063045057165
seg_4fa87d.csv,1.452063045057165
seg_4fce5b.csv,1.2659108165646786
seg_4fd191.csv,1.3404042600717307
seg_500108.csv,1.3404042600717307
seg_5009d9.csv,1.2659108165646786
seg_500c80.csv,1.452063045057165
seg_502fab.csv,1.452063045057165
seg_507065.csv,1.3404042600717307
seg_5090fa.csv,1.3778484083873233
seg_509d55.csv,1.2659108165646786
seg_50a667.csv,1.2659108165646786
seg_50b048.csv,1.452063045057165
seg_50e270.csv,1.3404042600717307
seg_511d25.csv,1.452063045057165
seg_512b3e.csv,1.452063045057165
seg_514543.csv,1.2659108165646786
seg_5147e1.csv,1.3778484083873233
seg_514b85.csv,1.452063045057165
seg_5165a4.csv,1.452063045057165
seg_517345.csv,1.452063045057165
seg_517425.csv,1.2659108165646786
seg_51865e.csv,1.3404042600717307
seg_518b1e.csv,1.3404042600717307
seg_51b68c.csv,1.452063045057165
seg_51f0a2.csv,1.3404042600717307
seg_51f6fd.csv,1.2659108165646786
seg_521a88.csv,1.452063045057165
seg_523945.csv,1.3404042600717307
seg_524b39.csv,1.452063045057165
seg_5254ce.csv,1.452063045057165
seg_5255c0.csv,1.452063045057165
seg_52636c.csv,1.3778484083873233
seg_529be4.csv,1.2659108165646786
seg_529c99.csv,1.3404042600717307
seg_52c139.csv,1.452063045057165
seg_530a02.csv,1.452063045057165
seg_53103b.csv,1.2659108165646786
seg_5311d1.csv,1.2659108165646786
seg_533613.csv,1.452063045057165
seg_53498a.csv,1.3404042600717307
seg_53a557.csv,1.2659108165646786
seg_53a5fd.csv,1.452063045057165
seg_53bdf5.csv,1.3778484083873233
seg_53caf1.csv,1.452063045057165
seg_53d818.csv,1.3404042600717307
seg_53e645.csv,1.3778484083873233
seg_53fa13.csv,1.2659108165646786
seg_5407b0.csv,1.3404042600717307
seg_5445bc.csv,1.2659108165646786
seg_54490e.csv,1.3778484083873233
seg_545fda.csv,1.452063045057165
seg_5467c8.csv,1.452063045057165
seg_546864.csv,1.452063045057165
seg_5470ca.csv,1.2659108165646786
seg_5495ca.csv,1.2659108165646786
seg_54af0d.csv,1.3404042600717307
seg_54b0ee.csv,1.3778484083873233
seg_54d0f3.csv,1.2659108165646786
seg_55239a.csv,1.2659108165646786
seg_552b8e.csv,1.452063045057165
seg_5559d9.csv,1.2659108165646786
seg_555f63.csv,1.3404042600717307
seg_5597ed.csv,1.2659108165646786
seg_55a0c3.csv,1.2659108165646786
seg_55a9a4.csv,1.452063045057165
seg_55b566.csv,1.3404042600717307
seg_55d50b.csv,1.3404042600717307
seg_561cf4.csv,1.3404042600717307
seg_563059.csv,1.452063045057165
seg_5639b3.csv,1.3404042600717307
seg_566efe.csv,1.452063045057165
seg_56e3e7.csv,1.452063045057165
seg_56e6f1.csv,1.2659108165646786
seg_56ebc7.csv,1.3404042600717307
seg_570a20.csv,1.3404042600717307
seg_570d69.csv,1.452063045057165
seg_572172.csv,1.452063045057165
seg_5759c9.csv,1.452063045057165
seg_5765b6.csv,1.452063045057165
seg_578e84.csv,1.452063045057165
seg_57908c.csv,1.2659108165646786
seg_57b6c0.csv,1.2659108165646786
seg_57dd68.csv,1.452063045057165
seg_57ea44.csv,1.3404042600717307
seg_580b65.csv,1.3778484083873233
seg_581fac.csv,1.2659108165646786
seg_585872.csv,1.452063045057165
seg_586726.csv,1.2659108165646786
seg_586c0f.csv,1.3404042600717307
seg_5887a8.csv,1.452063045057165
seg_588f61.csv,1.2659108165646786
seg_58d52d.csv,1.452063045057165
seg_58e74b.csv,1.3404042600717307
seg_58e9f9.csv,1.452063045057165
seg_58ea74.csv,1.452063045057165
seg_59058a.csv,1.3404042600717307
seg_590fa5.csv,1.3778484083873233
seg_591954.csv,1.452063045057165
seg_5924f5.csv,1.3778484083873233
seg_592807.csv,1.3778484083873233
seg_593c34.csv,1.3404042600717307
seg_5965d8.csv,1.2659108165646786
seg_596ae3.csv,1.452063045057165
seg_5975f4.csv,1.3404042600717307
seg_597bd6.csv,1.3404042600717307
seg_59818b.csv,1.452063045057165
seg_59cd7d.csv,1.3404042600717307
seg_59cfdb.csv,1.452063045057165
seg_59d484.csv,1.2659108165646786
seg_59de0b.csv,1.2659108165646786
seg_59e1db.csv,1.452063045057165
seg_59eb97.csv,1.3404042600717307
seg_5a0479.csv,1.452063045057165
seg_5a1adb.csv,1.3404042600717307
seg_5a242e.csv,1.452063045057165
seg_5a67b5.csv,1.452063045057165
seg_5a947e.csv,1.2659108165646786
seg_5abfdd.csv,1.3778484083873233
seg_5ad847.csv,1.2659108165646786
seg_5b392b.csv,1.2659108165646786
seg_5b7325.csv,1.3778484083873233
seg_5b8c39.csv,1.2659108165646786
seg_5bc0b0.csv,1.452063045057165
seg_5bd9ae.csv,1.3404042600717307
seg_5bdb47.csv,1.2659108165646786
seg_5bfbf0.csv,1.2659108165646786
seg_5c0929.csv,1.3404042600717307
seg_5c1a4d.csv,1.3404042600717307
seg_5c530f.csv,1.2659108165646786
seg_5c57a8.csv,1.3404042600717307
seg_5c8ae5.csv,1.2659108165646786
seg_5c9077.csv,1.452063045057165
seg_5cd98b.csv,1.2659108165646786
seg_5cde88.csv,1.2659108165646786
seg_5cfba9.csv,1.452063045057165
seg_5cfdc4.csv,1.3404042600717307
seg_5d333e.csv,1.452063045057165
seg_5d45db.csv,1.452063045057165
seg_5d92af.csv,1.452063045057165
seg_5d94b2.csv,1.2659108165646786
seg_5e020f.csv,1.3778484083873233
seg_5e0902.csv,1.3404042600717307
seg_5e1bba.csv,1.3778484083873233
seg_5e541f.csv,1.2659108165646786
seg_5e635a.csv,1.2659108165646786
seg_5e668a.csv,1.452063045057165
seg_5e70a7.csv,1.452063045057165
seg_5e7abf.csv,1.3404042600717307
seg_5e8ef4.csv,1.452063045057165
seg_5eb380.csv,1.3404042600717307
seg_5ec0e3.csv,1.452063045057165
seg_5ed47e.csv,1.452063045057165
seg_5ef47e.csv,1.2659108165646786
seg_5f0a92.csv,1.2659108165646786
seg_5f24d3.csv,1.3404042600717307
seg_5f352e.csv,1.3404042600717307
seg_5f355e.csv,1.452063045057165
seg_5f46a5.csv,1.3404042600717307
seg_5f7fd9.csv,1.2659108165646786
seg_5fe414.csv,1.2659108165646786
seg_60277f.csv,1.2659108165646786
seg_6074f9.csv,1.3404042600717307
seg_607559.csv,1.452063045057165
seg_60ab20.csv,1.452063045057165
seg_60b696.csv,1.3778484083873233
seg_60dacd.csv,1.452063045057165
seg_60df2a.csv,1.452063045057165
seg_610379.csv,1.2659108165646786
seg_61219c.csv,1.2659108165646786
seg_613702.csv,1.3404042600717307
seg_614b50.csv,1.3404042600717307
seg_6153ca.csv,1.452063045057165
seg_6167f0.csv,1.452063045057165
seg_616c8b.csv,1.452063045057165
seg_61b50d.csv,1.3404042600717307
seg_61f504.csv,1.3404042600717307
seg_620ee4.csv,1.452063045057165
seg_622e9d.csv,1.2659108165646786
seg_62331a.csv,1.2659108165646786
seg_6262c4.csv,1.3404042600717307
seg_629822.csv,1.2659108165646786
seg_62a403.csv,1.452063045057165
seg_62c582.csv,1.3404042600717307
seg_63130f.csv,1.452063045057165
seg_633651.csv,1.2659108165646786
seg_634180.csv,1.2659108165646786
seg_634f05.csv,1.3404042600717307
seg_635770.csv,1.452063045057165
seg_63582a.csv,1.452063045057165
seg_63c13d.csv,1.3404042600717307
seg_63c518.csv,1.2659108165646786
seg_63c8e4.csv,1.452063045057165
seg_63c983.csv,1.3404042600717307
seg_63c9a3.csv,1.2659108165646786
seg_63d651.csv,1.2659108165646786
seg_6422d1.csv,1.452063045057165
seg_643d1f.csv,1.3778484083873233
seg_643f86.csv,1.452063045057165
seg_64bcb9.csv,1.452063045057165
seg_64be5d.csv,1.452063045057165
seg_64be91.csv,1.452063045057165
seg_64daae.csv,1.2659108165646786
seg_64dcf0.csv,1.452063045057165
seg_64f8dc.csv,1.3404042600717307
seg_650de2.csv,1.3404042600717307
seg_651808.csv,1.2659108165646786
seg_652cc2.csv,1.2659108165646786
seg_655780.csv,1.2659108165646786
seg_655ad6.csv,1.452063045057165
seg_655cae.csv,1.2659108165646786
seg_658bf4.csv,1.3404042600717307
seg_659ff8.csv,1.2659108165646786
seg_65b962.csv,1.2659108165646786
seg_65c4e1.csv,1.3404042600717307
seg_65ef95.csv,1.3404042600717307
seg_65f01e.csv,1.452063045057165
seg_65fbac.csv,1.452063045057165
seg_660fe1.csv,1.2659108165646786
seg_660fef.csv,1.3778484083873233
seg_661629.csv,1.2659108165646786
seg_666056.csv,1.2659108165646786
seg_6681ee.csv,1.3404042600717307
seg_66820a.csv,1.2659108165646786
seg_6696d0.csv,1.2659108165646786
seg_66b7c3.csv,1.452063045057165
seg_66e45a.csv,1.3404042600717307
seg_66ed4d.csv,1.3404042600717307
seg_670bde.csv,1.3404042600717307
seg_67330f.csv,1.3778484083873233
seg_673c60.csv,1.2659108165646786
seg_67599b.csv,1.3404042600717307
seg_679dd2.csv,1.452063045057165
seg_67aa76.csv,1.2659108165646786
seg_68102c.csv,1.452063045057165
seg_683ddf.csv,1.452063045057165
seg_686edc.csv,1.3404042600717307
seg_687a5c.csv,1.2659108165646786
seg_68a484.csv,1.452063045057165
seg_68da94.csv,1.2659108165646786
seg_691a72.csv,1.452063045057165
seg_692e7a.csv,1.452063045057165
seg_6951e0.csv,1.2285902259945145
seg_695380.csv,1.2659108165646786
seg_696621.csv,1.3778484083873233
seg_6968c8.csv,1.2659108165646786
seg_69787a.csv,1.452063045057165
seg_69a230.csv,1.2659108165646786
seg_69a53e.csv,1.3778484083873233
seg_69dbad.csv,1.452063045057165
seg_6a05e7.csv,1.2659108165646786
seg_6a116b.csv,1.3778484083873233
seg_6a26de.csv,1.2659108165646786
seg_6a45a0.csv,1.2659108165646786
seg_6a4ad1.csv,1.3404042600717307
seg_6ab188.csv,1.452063045057165
seg_6ac67a.csv,1.2659108165646786
seg_6ac82a.csv,1.3404042600717307
seg_6ae32d.csv,1.2659108165646786
seg_6b0107.csv,1.452063045057165
seg_6b2ce0.csv,1.452063045057165
seg_6b3a9d.csv,1.2659108165646786
seg_6b4e04.csv,1.452063045057165
seg_6b536d.csv,1.2659108165646786
seg_6b9511.csv,1.452063045057165
seg_6b9d02.csv,1.2659108165646786
seg_6be48e.csv,1.2659108165646786
seg_6c292b.csv,1.452063045057165
seg_6c309f.csv,1.3404042600717307
seg_6c34c2.csv,1.2659108165646786
seg_6c8a45.csv,1.2659108165646786
seg_6c909f.csv,1.2659108165646786
seg_6cfb76.csv,1.2659108165646786
seg_6d01a3.csv,1.452063045057165
seg_6d35cd.csv,1.2659108165646786
seg_6d36a1.csv,1.452063045057165
seg_6d4109.csv,1.3778484083873233
seg_6d4fa6.csv,1.2659108165646786
seg_6d6fad.csv,1.2659108165646786
seg_6da1ff.csv,1.452063045057165
seg_6dac5d.csv,1.452063045057165
seg_6dd0fc.csv,1.2659108165646786
seg_6de4fd.csv,1.452063045057165
seg_6de935.csv,1.452063045057165
seg_6df48e.csv,1.3404042600717307
seg_6dfab7.csv,1.2659108165646786
seg_6e12ae.csv,1.2659108165646786
seg_6e12ee.csv,1.2659108165646786
seg_6e1ee7.csv,1.452063045057165
seg_6e572a.csv,1.2659108165646786
seg_6e5a38.csv,1.2659108165646786
seg_6e7f73.csv,1.452063045057165
seg_6e98aa.csv,1.3778484083873233
seg_6eb146.csv,1.452063045057165
seg_6ed49a.csv,1.452063045057165
seg_6edcb8.csv,1.3404042600717307
seg_6eedcc.csv,1.452063045057165
seg_6f17de.csv,1.3404042600717307
seg_6f2222.csv,1.3404042600717307
seg_6f3d90.csv,1.3404042600717307
seg_6f60b2.csv,1.3404042600717307
seg_6f650f.csv,1.452063045057165
seg_6f9a98.csv,1.452063045057165
seg_6fb17f.csv,1.3778484083873233
seg_6fc3ef.csv,1.452063045057165
seg_6fc8b3.csv,1.452063045057165
seg_6fd5bb.csv,1.3778484083873233
seg_7012af.csv,1.452063045057165
seg_7020c5.csv,1.452063045057165
seg_702e03.csv,1.2659108165646786
seg_703cea.csv,1.452063045057165
seg_705463.csv,1.3404042600717307
seg_708349.csv,1.452063045057165
seg_70991d.csv,1.2285902259945145
seg_709b6a.csv,1.452063045057165
seg_709d08.csv,1.3778484083873233
seg_70a60e.csv,1.3778484083873233
seg_70b375.csv,1.3778484083873233
seg_70be4d.csv,1.452063045057165
seg_70e891.csv,1.452063045057165
seg_70edf5.csv,1.3778484083873233
seg_70fb30.csv,1.452063045057165
seg_7120ac.csv,1.3778484083873233
seg_71238c.csv,1.452063045057165
seg_71348a.csv,1.3404042600717307
seg_715e2c.csv,1.3778484083873233
seg_715ff6.csv,1.452063045057165
seg_7189ca.csv,1.452063045057165
seg_718b53.csv,1.2659108165646786
seg_71936f.csv,1.2659108165646786
seg_71b4e0.csv,1.2285902259945145
seg_71b975.csv,1.3404042600717307
seg_71c9e9.csv,1.2659108165646786
seg_71f571.csv,1.3404042600717307
seg_7211f1.csv,1.3404042600717307
seg_724df9.csv,1.3404042600717307
seg_725772.csv,1.452063045057165
seg_725e84.csv,1.3404042600717307
seg_727fc7.csv,1.2659108165646786
seg_72858d.csv,1.3404042600717307
seg_72859b.csv,1.2285902259945145
seg_72aba8.csv,1.3778484083873233
seg_72b68c.csv,1.452063045057165
seg_72c307.csv,1.452063045057165
seg_72ebda.csv,1.452063045057165
seg_72f40a.csv,1.452063045057165
seg_730ebe.csv,1.3404042600717307
seg_734a88.csv,1.452063045057165
seg_73565e.csv,1.2659108165646786
seg_735cdd.csv,1.2659108165646786
seg_73858d.csv,1.452063045057165
seg_738be6.csv,1.3404042600717307
seg_739643.csv,1.452063045057165
seg_739679.csv,1.2659108165646786
seg_739856.csv,1.452063045057165
seg_739fb0.csv,1.3404042600717307
seg_73ab4a.csv,1.2659108165646786
seg_73b0f7.csv,1.3778484083873233
seg_740837.csv,1.3778484083873233
seg_741fc1.csv,1.452063045057165
seg_74235f.csv,1.2659108165646786
seg_7428e7.csv,1.3778484083873233
seg_743775.csv,1.452063045057165
seg_74537f.csv,1.452063045057165
seg_746d1d.csv,1.2285902259945145
seg_7480f4.csv,1.452063045057165
seg_74b264.csv,1.2659108165646786
seg_74b3bd.csv,1.452063045057165
seg_74ce61.csv,1.452063045057165
seg_74d58a.csv,1.452063045057165
seg_74d8cc.csv,1.3404042600717307
seg_74dda9.csv,1.452063045057165
seg_74f330.csv,1.3404042600717307
seg_74fcfc.csv,1.452063045057165
seg_74ffde.csv,1.3404042600717307
seg_750244.csv,1.452063045057165
seg_750c93.csv,1.2659108165646786
seg_750d20.csv,1.452063045057165
seg_750e7e.csv,1.452063045057165
seg_75211e.csv,1.2659108165646786
seg_753190.csv,1.452063045057165
seg_753ba6.csv,1.2659108165646786
seg_7540f3.csv,1.452063045057165
seg_75438e.csv,1.2659108165646786
seg_755d50.csv,1.2659108165646786
seg_75654d.csv,1.2659108165646786
seg_758374.csv,1.2659108165646786
seg_758ca4.csv,1.3404042600717307
seg_759fb1.csv,1.452063045057165
seg_75a878.csv,1.2659108165646786
seg_75c34b.csv,1.3404042600717307
seg_75cd6a.csv,1.2659108165646786
seg_75dc3e.csv,1.2659108165646786
seg_75e669.csv,1.2659108165646786
seg_75e93c.csv,1.2659108165646786
seg_75eb90.csv,1.452063045057165
seg_75ffc9.csv,1.3778484083873233
seg_760d70.csv,1.2659108165646786
seg_76106f.csv,1.452063045057165
seg_762188.csv,1.452063045057165
seg_762be4.csv,1.2659108165646786
seg_7630c5.csv,1.452063045057165
seg_766e42.csv,1.2659108165646786
seg_76b76f.csv,1.452063045057165
seg_76c2fa.csv,1.2659108165646786
seg_76d16c.csv,1.3778484083873233
seg_76e914.csv,1.2659108165646786
seg_76f1af.csv,1.2659108165646786
seg_76f3f2.csv,1.452063045057165
seg_76f76d.csv,1.2659108165646786
seg_774ad2.csv,1.2659108165646786
seg_77bf79.csv,1.2659108165646786
seg_77c546.csv,1.2659108165646786
seg_77db7b.csv,1.452063045057165
seg_77dbe7.csv,1.2659108165646786
seg_77df38.csv,1.452063045057165
seg_77e7bf.csv,1.2659108165646786
seg_77ea14.csv,1.2659108165646786
seg_77f9e3.csv,1.2659108165646786
seg_77fe77.csv,1.3778484083873233
seg_7848f8.csv,1.3404042600717307
seg_7862ed.csv,1.2659108165646786
seg_786ff6.csv,1.452063045057165
seg_78852d.csv,1.452063045057165
seg_78addc.csv,1.452063045057165
seg_78d817.csv,1.2659108165646786
seg_78db0a.csv,1.3778484083873233
seg_78ded2.csv,1.3404042600717307
seg_78fc4b.csv,1.452063045057165
seg_790108.csv,1.452063045057165
seg_7949da.csv,1.2659108165646786
seg_79c47a.csv,1.3404042600717307
seg_79dc90.csv,1.3404042600717307
seg_79e301.csv,1.3404042600717307
seg_7a09ec.csv,1.3404042600717307
seg_7a521c.csv,1.3778484083873233
seg_7a5243.csv,1.3778484083873233
seg_7a9228.csv,1.2659108165646786
seg_7a9f2b.csv,1.3404042600717307
seg_7aeca4.csv,1.452063045057165
seg_7b0936.csv,1.452063045057165
seg_7b2994.csv,1.2659108165646786
seg_7b3017.csv,1.3778484083873233
seg_7b5f90.csv,1.452063045057165
seg_7bb771.csv,1.3404042600717307
seg_7bec10.csv,1.452063045057165
seg_7bf143.csv,1.2659108165646786
seg_7c0376.csv,1.3404042600717307
seg_7c10c1.csv,1.2659108165646786
seg_7c2beb.csv,1.452063045057165
seg_7c2c48.csv,1.2659108165646786
seg_7c6c31.csv,1.452063045057165
seg_7c88d1.csv,1.3404042600717307
seg_7c9433.csv,1.452063045057165
seg_7cb417.csv,1.3778484083873233
seg_7cbb45.csv,1.2659108165646786
seg_7cd6b1.csv,1.3404042600717307
seg_7cdfe5.csv,1.3404042600717307
seg_7ce9cb.csv,1.2659108165646786
seg_7cef95.csv,1.452063045057165
seg_7d17eb.csv,1.452063045057165
seg_7d2535.csv,1.2659108165646786
seg_7d2e57.csv,1.452063045057165
seg_7d65c7.csv,1.452063045057165
seg_7d718e.csv,1.452063045057165
seg_7d88e3.csv,1.452063045057165
seg_7d994f.csv,1.3404042600717307
seg_7ddc30.csv,1.3778484083873233
seg_7df3dd.csv,1.3778484083873233
seg_7e3b3e.csv,1.2659108165646786
seg_7e9eb7.csv,1.452063045057165
seg_7eb108.csv,1.452063045057165
seg_7ebdc3.csv,1.2659108165646786
seg_7ed2dd.csv,1.2659108165646786
seg_7ef97b.csv,1.3404042600717307
seg_7efdd5.csv,1.452063045057165
seg_7f3ab0.csv,1.2659108165646786
seg_7f5b6f.csv,1.452063045057165
seg_7f786b.csv,1.2659108165646786
seg_7f93b2.csv,1.2659108165646786
seg_7f9b3a.csv,1.452063045057165
seg_7fa6ec.csv,1.3404042600717307
seg_7fac26.csv,1.452063045057165
seg_7fd3a3.csv,1.3404042600717307
seg_7fd6b7.csv,1.452063045057165
seg_80211c.csv,1.452063045057165
seg_804fb5.csv,1.2659108165646786
seg_80622d.csv,1.452063045057165
seg_807901.csv,1.2659108165646786
seg_80b9b4.csv,1.452063045057165
seg_80fb86.csv,1.452063045057165
seg_812962.csv,1.3404042600717307
seg_812a50.csv,1.452063045057165
seg_813aab.csv,1.3404042600717307
seg_814b1f.csv,1.3404042600717307
seg_816b7a.csv,1.2659108165646786
seg_818382.csv,1.3778484083873233
seg_81a8ea.csv,1.452063045057165
seg_81bebd.csv,1.452063045057165
seg_81c1a6.csv,1.452063045057165
seg_81c432.csv,1.2659108165646786
seg_81f798.csv,1.2659108165646786
seg_8200d2.csv,1.3404042600717307
seg_82303e.csv,1.3404042600717307
seg_82316b.csv,1.3404042600717307
seg_8244bf.csv,1.3404042600717307
seg_82456a.csv,1.3404042600717307
seg_826208.csv,1.452063045057165
seg_827804.csv,1.2659108165646786
seg_827a21.csv,1.3778484083873233
seg_827c07.csv,1.2659108165646786
seg_82c138.csv,1.3778484083873233
seg_82ce27.csv,1.2659108165646786
seg_82d7b6.csv,1.3404042600717307
seg_830cff.csv,1.2285902259945145
seg_8310ea.csv,1.452063045057165
seg_8324a4.csv,1.452063045057165
seg_8328f5.csv,1.2659108165646786
seg_832a4d.csv,1.2659108165646786
seg_8344ee.csv,1.3404042600717307
seg_8353f5.csv,1.452063045057165
seg_836aac.csv,1.2659108165646786
seg_836ef0.csv,1.3404042600717307
seg_83bef8.csv,1.2659108165646786
seg_83cb2c.csv,1.2659108165646786
seg_83dc2e.csv,1.452063045057165
seg_83ef67.csv,1.452063045057165
seg_83f476.csv,1.3404042600717307
seg_83f89e.csv,1.452063045057165
seg_83f928.csv,1.452063045057165
